INDEX VERSION 1.127+/users/nfs/Etu3/3600273/SEMESTRE2/CPS/TME4/CPS4/.metadata/.plugins/org.eclipse.jdt.core
1454196937.index
3837109771.index
3465128335.index
2996254347.index
376536866.index
1972550835.index
2775721933.index
1727937582.index
2172295349.index
641593065.index
805852095.index
1841776318.index
2296194092.index
662699500.index
1472835073.index
1952106984.index
